…
You can install rockchain from github with:

``` r
# install.packages('devtools')
devtools::install_github("leonawicz/rockchain")
```

Example
-------

``` r
library(rockchain)
cap()
#> # A tibble: 100 x 15
#>              id         name symbol   rank    price_usd  price_btc
#>           <chr>        <chr>  <chr> <fctr>        <dbl>      <dbl>
#>  1      bitcoin      Bitcoin    BTC      1 11455.300000 1.00000000
#>  2     ethereum     Ethereum    ETH      2   465.503000 0.04085340
#>  3 bitcoin-cash Bitcoin Cash    BCH      3  1545.480000 0.13563400
#>  4       ripple       Ripple    XRP      4     0.250417 0.00002198
#>  5         iota         IOTA  MIOTA      5     2.776470 0.00024367
#>  6         dash         Dash   DASH      6   761.527000 0.06683300
#>  7     litecoin     Litecoin    LTC      7   101.047000 0.00886808
#>  8 bitcoin-gold Bitcoin Gold    BTG      8   322.052000 0.02826390
#>  9      cardano      Cardano    ADA      9     0.136738 0.00001200
#> 10       monero       Monero    XMR     10   201.181000 0.01765600
#> # ... with 90 more rows, and 9 more variables: `24h_volume_usd` <dbl>,
#> #   market_cap_usd <dbl>, available_supply <dbl>, total_supply <dbl>,
#> #   max_supply <dbl>, percent_change_1h <dbl>, percent_change_24h <dbl>,
#> #   percent_change_7d <dbl>, last_updated <dbl>
…
