Introduction to rockchain • rockchain
…
      Source: vignettes/rockchain.Rmd

The rockchain package provides simple interfaces to coinmarketcap.com ticker and market cap data and blockchain.info ticker and Bitcoin wallet data. The current package does not yet support additional blockchain APIs, but will in the future. For now, it offers cryptocurrency market data retrieval and Bitcoin wallet transaction data retrieval via the two currently available APIs.

Ticker and marketcap data

The default API for ticker and market cap data is the coinmarketcap.com API. The site provides up-to-date cryptocurrency prices for Bitcoin and over a thousand “altcoins” (non-Bitcoin cryptocurrencies). While Bitcoin enjoys a large percentage of the total global cryptocurrency market cap, a number of altcoins also have large market caps, at least by current cryptocurrency standards. These include altcoins such as Ethereum (ETH) and Litecoin (LTC). Many others do not. And many of these that also do not have much to offer in terms of known technological or practical value are sometimes referred to as shitcoins; Buyer beware.

The coinmarketcap.com ticker

To look at the entire ticker from coinmarketcap.com all you need is to call cap(). Below are several ways you can use cap. First return the entire ticker with cryptocurrency prices in USD.

library(rockchain)
cap()
#> # A tibble: 1,596 x 15
#>    id         name       symbol rank  price_usd price_btc `24h_volume_usd`
#>    <chr>      <chr>      <chr>  <fct>     <dbl>     <dbl>            <dbl>
#>  1 bitcoin    Bitcoin    BTC    1      6756     1.00            4087320000
#>  2 ethereum   Ethereum   ETH    2       379     0.0565          1085240000
#>  3 ripple     Ripple     XRP    3         0.493 0.0000736        223847000
#>  4 bitcoin-c~ Bitcoin C~ BCH    4       660     0.0984           286396000
#>  5 litecoin   Litecoin   LTC    5       113     0.0169           253058000
#>  6 eos        EOS        EOS    6         5.76  0.000859         204308000
#>  7 cardano    Cardano    ADA    7         0.148 0.0000221        108073000
#>  8 stellar    Stellar    XLM    8         0.200 0.0000299         64459900
#>  9 neo        NEO        NEO    9        48.2   0.00719           58079400
#> 10 iota       IOTA       MIOTA  10        1.06  0.000158          25621200
#> # ... with 1,586 more rows, and 8 more variables: market_cap_usd <dbl>,
#> #   available_supply <dbl>, total_supply <dbl>, max_supply <dbl>,
#> #   percent_change_1h <dbl>, percent_change_24h <dbl>,
#> #   percent_change_7d <dbl>, last_updated <dbl>
…
At this point you have seen three different ways to specify crypto: either as NULL to yield the full ticker, an integer to yield to top coins by market cap, or as a character vector ticker symbols for the specific cryptocurrencies of interest.

blockchain.info ticker

If you are looking at Bitcoin only and working specifically with the blockchain.info API, you can also obtain ticker information for Bitcoin with bcinfo. There is only a fiat argument, analogous to convert, since blockchain.info is specific to Bitcoin and ticker results from the API are only available in fiat currencies.

bcinfo()
#> # A tibble: 22 x 6
#>      `15m`    last     buy    sell symbol currency
#>      <dbl>   <dbl>   <dbl>   <dbl> <chr>  <chr>   
#>  1    6703    6703    6703    6703 $      USD     
#>  2    8725    8725    8725    8725 $      AUD     
#>  3   22153   22153   22153   22153 R$     BRL     
#>  4    8649    8649    8649    8649 $      CAD     
#>  5    6396    6396    6396    6396 CHF    CHF     
#>  6 4047954 4047954 4047954 4047954 $      CLP     
#>  7   42140   42140   42140   42140 ¥      CNY     
#>  8   40543   40543   40543   40543 kr     DKK     
#>  9    5428    5428    5428    5428 €      EUR     
#> 10    4782    4782    4782    4782 £      GBP     
#> # ... with 12 more rows
…
ticker(crypto = 5)
cap(crypto = 5)

ticker(crypto = c("ETH", "LTC"), convert = c("EUR", "GBP", "BTC"))
cap(crypto = c("ETH", "LTC"), convert = c("EUR", "GBP", "BTC"))

ticker(convert = NULL, api = "blockchain.info")
bcinfo()

Ticker-related helper functions

In addition to the blockchain.info API being specific to Bitcoin and offering conversion only to fiat currencies for ticker prices, it also does not support as many fiat currencies as the coinmarketcap.com API.

fiat_symbols()
#> # A tibble: 33 x 3
#>    currency coinmarketcap.com blockchain.info
#>    <chr>    <lgl>             <lgl>          
#>  1 AUD      T                 T              
#>  2 BRL      T                 T              
#>  3 CAD      T                 T              
#>  4 CHF      T                 T              
#>  5 CLP      T                 T              
#>  6 CNY      T                 T              
#>  7 CZK      T                 F              
#>  8 DKK      T                 T              
#>  9 EUR      T                 T              
#> 10 GBP      T                 T              
#> # ... with 23 more rows
length(fiat_symbols(api = "coinmarketcap.com"))
#> [1] 32
length(fiat_symbols(api = "blockchain.info"))
#> [1] 22

Previously, cap() returned well over 1,000 cryptocurrencies. rockchain includes a data set, coins, that provides the cryptocurrency names, ticker symbols, and IDs (as used by the coinmarketcap.com API) for all of these altcoins, at least as of the time of package publication (1,398). While an updated table can always be obtained just using the first three columns of cap(), the coins data set is a convenient way to access much of this coin metadata without making an API call.

There are also a few related convenient lookup functions for finding IDs, names or symbols from either of the other two.

coins
#> # A tibble: 1,398 x 3
#>    id           name         symbol
#>    <chr>        <chr>        <chr> 
#>  1 bitcoin      Bitcoin      BTC   
#>  2 ethereum     Ethereum     ETH   
#>  3 ripple       Ripple       XRP   
#>  4 bitcoin-cash Bitcoin Cash BCH   
#>  5 cardano      Cardano      ADA   
#>  6 litecoin     Litecoin     LTC   
#>  7 nem          NEM          XEM   
#>  8 stellar      Stellar      XLM   
#>  9 iota         IOTA         MIOTA 
#> 10 dash         Dash         DASH  
#> # ... with 1,388 more rows
…
#> [1] "00e8fd98ca34f195b020af4a8b1c7238663d4212"
#> [2] "cc97e1638381758e58d7e5885bb001d08d35f06d"
address(w)
#> [1] "115p7UMMngoj1pMvkpHijcRdfJNXj6LrLn"
#> [2] "1KennyH9grzif79WbaQDHpqgTnm25j4rRj"
received(w)  # total Bitcoin received
#> [1] 14.68013  0.00001
sent(w)  # total Bitcoin sent
#> [1] 14.41068  0.00001
balance(w)  # final Bitcoin balance
#> [1] 0.2694557 0.0000000
txn(w)  # total number of transactions
#> [1] 118   2
transactions(w)  # transaction details
#> # A tibble: 102 x 16
#>      ver inputs   weight block_height relayed_by  out    lock_time  result
#>    <int> <list>    <int>        <int> <chr>       <list>     <int>   <int>
#>  1     1 <data.f~   1000       509162 0.0.0.0     <data~         0  0     
#>  2     1 <data.f~  32599       498751 0.0.0.0     <data~         0  6.00e6
#>  3     1 <data.f~  49944       498750 0.0.0.0     <data~         0  1.08e7
#>  4     1 <data.f~   1164       479819 85.224.105~ <data~    479808  1.17e6
#>  5     1 <data.f~  42088       478796 193.49.43.~ <data~         0  9.00e6
#>  6     1 <data.f~  24516       478796 176.9.110.4 <data~         0 -7.07e8
#>  7     1 <data.f~    900       471511 73.153.220~ <data~    471510 -7.34e8
#>  8     1 <data.f~   1344       471189 136.243.13~ <data~         0  4.00e6
#>  9     1 <data.f~    904       470322 217.111.66~ <data~         0  5.00e5
#> 10     1 <data.f~   1360       470040 176.126.85~ <data~         0  7.69e6
#> # ... with 92 more rows, and 8 more variables: size <int>, time <int>,
#> #   tx_index <int>, vin_sz <int>, hash <chr>, vout_sz <int>, rbf <lgl>,
#> #   address <chr>
…
